out2.vcd
$date
  Mon Dec 26 09:39:27 2022
$end
$version
  GHDL v0
$end
$timescale
  1 fs
$end
$var reg 1 ! clk $end
$var reg 16 " value[15:0] $end
$scope module uut $end
$var reg 1 # clk $end
$var reg 16 $ value[15:0] $end
$var reg 4 % wire_0[3:0] $end
$var reg 16 & wire_1[15:0] $end
$var reg 16 ' wire_2[15:0] $end
$var reg 4 ( wire_3[3:0] $end
$var reg 1 ) wire_5 $end
$var reg 4 * wire_18[3:0] $end
$var reg 4 + wire_19[3:0] $end
$var reg 16 , wire_9[15:0] $end
$var reg 16 - wire_10[15:0] $end
$var reg 4 . wire_12[3:0] $end
$var reg 4 / wire_13[3:0] $end
$var reg 3 0 wire_14[2:0] $end
$var reg 16 1 wire_15[15:0] $end
$scope module arithmetic_logic_unit $end
$var reg 4 2 op[3:0] $end
$var reg 16 3 rs[15:0] $end
$var reg 16 4 rt[15:0] $end
$var reg 16 5 rd[15:0] $end
$var reg 16 6 result[15:0] $end
$upscope $end
$scope module control_unit $end
$var reg 4 7 instr[3:0] $end
$var reg 4 8 alu_op[3:0] $end
$var reg 1 9 reg_dst $end
$upscope $end
$scope module instruction_memory $end
$var reg 3 : instr_adder[2:0] $end
$var reg 4 ; op[3:0] $end
$var reg 4 < rs_adder[3:0] $end
$var reg 4 = rt_adder[3:0] $end
$var reg 4 > rd_adder[3:0] $end
$upscope $end
$scope module mux_0 $end
$var reg 4 ? a[3:0] $end
$var reg 4 @ b[3:0] $end
$var reg 1 A sel $end
$var reg 4 B y[3:0] $end
$upscope $end
$scope module program_counter $end
$var reg 1 C clk $end
$var reg 3 D next_instr[2:0] $end
$var reg 3 E current_signal[2:0] $end
$upscope $end
$scope module register_file $end
$var reg 1 F clk $end
$var reg 4 G rs_adder[3:0] $end
$var reg 4 H rt_adder[3:0] $end
$var reg 4 I rd_adder[3:0] $end
$var reg 16 J wr_data[15:0] $end
$var reg 16 K rs[15:0] $end
$var reg 16 L rt[15:0] $end
$comment reg is not handled $end
$upscope $end
$upscope $end
$enddefinitions $end
#0
0!
b1001001100000100 "
0#
b1001001100000100 $
b0110 %
b0000000011000010 &
b0000000011000010 '
b0110 (
0)
b0000 *
b0010 +
bUUUUUUUUUUUUUUUU ,
bUUUUUUUUUUUUUUUU -
b0010 .
b0000 /
b000 0
b1001001100000100 1
b0110 2
b0000000011000010 3
b0000000011000010 4
b1001001100000100 5
b1001001100000100 6
b0110 7
b0110 8
09
b000 :
b0110 ;
b0000 <
b0000 =
b0010 >
b0000 ?
b0010 @
0A
b0010 B
0C
b000 D
b000 E
0F
b0000 G
b0000 H
b0010 I
b1001001100000100 J
b0000000011000010 K
b0000000011000010 L
#5000000
1!
1#
1C
1F
#10000000
0!
b1111111100101010 "
0#
b1111111100101010 $
b0011 %
b0000000011010101 &
b0000000011010101 '
b0011 (
b0001 *
b0001 +
b0001 .
b0001 /
b001 0
b1111111100101010 1
b0011 2
b0000000011010101 3
b0000000011010101 4
b1111111100101010 5
b1111111100101010 6
b0011 7
b0011 8
b001 :
b0011 ;
b0001 <
b0001 =
b0001 >
b0001 ?
b0001 @
b0001 B
0C
b001 D
b001 E
0F
b0001 G
b0001 H
b0001 I
b1111111100101010 J
b0000000011010101 K
b0000000011010101 L
#15000000
1!
1#
1C
1F
#20000000
0!
b0110110011111011 "
0#
b0110110011111011 $
b1001001100000100 &
b1001001100000100 '
b0010 *
b0011 +
b0011 .
b0010 /
b010 0
b0110110011111011 1
b1001001100000100 3
b1001001100000100 4
b0110110011111011 5
b0110110011111011 6
b010 :
b0010 <
b0010 =
b0011 >
b0010 ?
b0011 @
b0011 B
0C
b010 D
b010 E
0F
b0010 G
b0010 H
b0011 I
b0110110011111011 J
b1001001100000100 K
b1001001100000100 L
#25000000
1!
1#
1C
1F
#30000000
0!
b1111111111101010 "
0#
b1111111111101010 $
b0001 %
b0000000011000010 &
b1111111100101010 '
b0001 (
b0001 *
b0000 /
b011 0
b1111111111101010 1
b0001 2
b0000000011000010 3
b1111111100101010 4
b1111111111101010 5
b1111111111101010 6
b0001 7
b0001 8
b011 :
b0001 ;
b0000 <
b0001 =
b0001 ?
0C
b011 D
b011 E
0F
b0000 G
b0001 H
b1111111111101010 J
b0000000011000010 K
b1111111100101010 L
#35000000
1!
1#
1C
1F
#40000000
0!
b0110110011101110 "
0#
b0110110011101110 $
b0010 %
b1001001100000100 &
b1111111111101010 '
b0010 (
b0011 *
b0000 +
b0000 .
b0010 /
b100 0
b0110110011101110 1
b0010 2
b1001001100000100 3
b1111111111101010 4
b0110110011101110 5
b0110110011101110 6
b0010 7
b0010 8
b100 :
b0010 ;
b0010 <
b0011 =
b0000 >
b0011 ?
b0000 @
b0000 B
0C
b100 D
b100 E
0F
b0010 G
b0011 H
b0000 I
b0110110011101110 J
b1001001100000100 K
b1111111111101010 L
#45000000
1!
1#
1C
1F
#50000000
0!
0#
b0000 %
b0110110011101110 &
b0110110011101110 '
b0000 (
b0000 *
b0000 /
b101 0
b0000 2
b0110110011101110 3
b0110110011101110 4
b0000 7
b0000 8
b101 :
b0000 ;
b0000 <
b0000 =
b0000 ?
0C
b101 D
b101 E
0F
b0000 G
b0000 H
b0110110011101110 K
b0110110011101110 L
#55000000
1!
1#
1C
1F
#60000000
0!
0#
b110 0
b110 :
0C
b110 D
b110 E
0F
#65000000
1!
1#
1C
1F
#70000000
0!
0#
b111 0
b111 :
0C
b111 D
b111 E
0F
#75000000
1!
1#
1C
1F
#80000000
0!
b1010110101000100 "
0#
b1010110101000100 $
b0110 %
b0110 (
b0010 +
b0010 .
b000 0
b1010110101000100 1
b0110 2
b1010110101000100 5
b1010110101000100 6
b0110 7
b0110 8
b000 :
b0110 ;
b0010 >
b0010 @
b0010 B
0C
b000 D
b000 E
0F
b0010 I
b1010110101000100 J
#85000000
1!
1#
1C
1F
#90000000
0!
b0000000011010101 "
0#
b0000000011010101 $
b0011 %
b1111111100101010 &
b1111111100101010 '
b0011 (
b0001 *
b0001 +
b0001 .
b0001 /
b001 0
b0000000011010101 1
b0011 2
b1111111100101010 3
b1111111100101010 4
b0000000011010101 5
b0000000011010101 6
b0011 7
b0011 8
b001 :
b0011 ;
b0001 <
b0001 =
b0001 >
b0001 ?
b0001 @
b0001 B
0C
b001 D
b001 E
0F
b0001 G
b0001 H
b0001 I
b0000000011010101 J
b1111111100101010 K
b1111111100101010 L
#95000000
1!
1#
1C
1F
#100000000
0!
b0101001010111011 "
0#
b0101001010111011 $
b1010110101000100 &
b1010110101000100 '
b0010 *
b0011 +
b0011 .
b0010 /
b010 0
b0101001010111011 1
b1010110101000100 3
b1010110101000100 4
b0101001010111011 5
b0101001010111011 6
b010 :
b0010 <
b0010 =
b0011 >
b0010 ?
b0011 @
b0011 B
0C
b010 D
b010 E
0F
b0010 G
b0010 H
b0011 I
b0101001010111011 J
b1010110101000100 K
b1010110101000100 L
#105000000
1!
1#
1C
1F
#110000000
0!
b0110110011111111 "
0#
b0110110011111111 $
b0001 %
b0110110011101110 &
b0000000011010101 '
b0001 (
b0001 *
b0000 /
b011 0
b0110110011111111 1
b0001 2
b0110110011101110 3
b0000000011010101 4
b0110110011111111 5
b0110110011111111 6
b0001 7
b0001 8
b011 :
b0001 ;
b0000 <
b0001 =
b0001 ?
0C
b011 D
b011 E
0F
b0000 G
b0001 H
b0110110011111111 J
b0110110011101110 K
b0000000011010101 L
#115000000
1!
1#
1C
1F
#120000000
0!
b1100000110111011 "
0#
b1100000110111011 $
b0010 %
b1010110101000100 &
b0110110011111111 '
b0010 (
b0011 *
b0000 +
b0000 .
b0010 /
b100 0
b1100000110111011 1
b0010 2
b1010110101000100 3
b0110110011111111 4
b1100000110111011 5
b1100000110111011 6
b0010 7
b0010 8
b100 :
b0010 ;
b0010 <
b0011 =
b0000 >
b0011 ?
b0000 @
b0000 B
0C
b100 D
b100 E
0F
b0010 G
b0011 H
b0000 I
b1100000110111011 J
b1010110101000100 K
b0110110011111111 L
#125000000
1!
1#
1C
1F
#130000000
0!
0#
b0000 %
b1100000110111011 &
b1100000110111011 '
b0000 (
b0000 *
b0000 /
b101 0
b0000 2
b1100000110111011 3
b1100000110111011 4
b0000 7
b0000 8
b101 :
b0000 ;
b0000 <
b0000 =
b0000 ?
0C
b101 D
b101 E
0F
b0000 G
b0000 H
b1100000110111011 K
b1100000110111011 L
#135000000
1!
1#
1C
1F
#140000000
0!
0#
b110 0
b110 :
0C
b110 D
b110 E
0F
#145000000
1!
1#
1C
1F
#150000000
0!
0#
b111 0
b111 :
0C
b111 D
b111 E
0F
